9
Generic Micro USB Cable 3 pack
8.99
20
Generic USB Wall Charger Adapter 5 pack
14.99
50
Earz Deluxe Wired Earbuds
27.99
10
Blahgitech RGB Gaming Mouse
159.99
30
Blahgitech RGB Gaming Keyboard
199.99
40
Achoo 1080P HDR Gaming Monitor
399.99
100
Generic Basic Mouse Pad, Black
10.87
20
Generic Basic Mouse Pad, Red
10.87
15
LAZOR Gaming Chair Professional Grade
179.99
20
