digraph "Graphical Class Hierarchy"
{
 // LATEX_PDF_SIZE
  edge [fontname="Helvetica",fontsize="10",labelfontname="Helvetica",labelfontsize="10"];
  node [fontname="Helvetica",fontsize="10",shape=record];
  rankdir="LR";
  Node6 [label="runtime_error",height=0.2,width=0.4,color="grey75", fillcolor="white", style="filled",tooltip=" "];
  Node6 -> Node0 [dir="back",color="midnightblue",fontsize="10",style="solid",fontname="Helvetica"];
  Node0 [label="Exception::InvalidIndexException",height=0.2,width=0.4,color="black", fillcolor="white", style="filled",URL="$classException_1_1InvalidIndexException.html",tooltip="EXCEPTION for an invalid index detected."];
  Node6 -> Node8 [dir="back",color="midnightblue",fontsize="10",style="solid",fontname="Helvetica"];
  Node8 [label="Exception::ItemNotFoundException",height=0.2,width=0.4,color="black", fillcolor="white", style="filled",URL="$classException_1_1ItemNotFoundException.html",tooltip="EXCEPTION for item not found in a structure."];
  Node6 -> Node9 [dir="back",color="midnightblue",fontsize="10",style="solid",fontname="Helvetica"];
  Node9 [label="Exception::NotImplemented\lException",height=0.2,width=0.4,color="black", fillcolor="white", style="filled",URL="$classException_1_1NotImplementedException.html",tooltip="EXCEPTION for when a function has not yet been implemented."];
  Node6 -> Node10 [dir="back",color="midnightblue",fontsize="10",style="solid",fontname="Helvetica"];
  Node10 [label="Exception::NullptrException",height=0.2,width=0.4,color="black", fillcolor="white", style="filled",URL="$classException_1_1NullptrException.html",tooltip="EXCEPTION for when a nullptr is detected when it is not expected."];
  Node6 -> Node11 [dir="back",color="midnightblue",fontsize="10",style="solid",fontname="Helvetica"];
  Node11 [label="Exception::StructureEmpty\lException",height=0.2,width=0.4,color="black", fillcolor="white", style="filled",URL="$classException_1_1StructureEmptyException.html",tooltip="EXCEPTION for when a structure is empty."];
  Node6 -> Node12 [dir="back",color="midnightblue",fontsize="10",style="solid",fontname="Helvetica"];
  Node12 [label="Exception::StructureFull\lException",height=0.2,width=0.4,color="black", fillcolor="white", style="filled",URL="$classException_1_1StructureFullException.html",tooltip="EXCEPTION for when a structure is full."];
}
